T Playback Analysis
…
  See gargle's "Non-interactive auth" vignette for more details:

  <]8;;https://gargle.r-lib.org/articles/non-interactive-auth.htmlhttps://gargle.r-lib.org/articles/non-interactive-auth.html]8;;>

ℹ The googlesheets4 package is using a cached token for ']8;;mailto:gbullied@smith.edugbullied@smith.edu]8;;'.

✔ Reading from "T Playback Experiment".

✔ Range 'Sheet1'.

#view data
raw_data

# A tibble: 78 × 8
   playback_period treatment  animal_ID footflags footflashes openmouths upright
   <chr>           <chr>          <dbl>     <dbl>       <dbl>      <dbl>   <dbl>
 1 Pre Playback    Testoster…         1         0           0          0       0
 2 Pre Playback    Testoster…         2         0           0          0       0
 3 Pre Playback    Saline             3         0           0          0       0
 4 Pre Playback    Saline             4         0           0          0       0
 5 Pre Playback    Testoster…         5         0           0          0       2
 6 Pre Playback    Testoster…         6         0           0          0       4
 7 Pre Playback    Saline             7         4           1          2       2
 8 Pre Playback    Saline             8         0           0          0       0
 9 Pre Playback    Saline             9         0           1          2       1
10 Pre Playback    Saline            10         0           0          0       0
# ℹ 68 more rows
# ℹ 1 more variable: arms <dbl>
…
